…
```


```python
db.query('''
    SELECT * from tCompanies;
         ''')
```




    ┌─────────────────────────────────────┬────────────────┬─────────┬───────┐
    │            organisation             │ company_number │  type   │ score │
    │               varchar               │    varchar     │ varchar │ int64 │
    ├─────────────────────────────────────┼────────────────┼─────────┼───────┤
    │ Allenheads Contemporary Arts        │ 06764121       │ fuzzy   │    95 │
    │ Amber Film & Photography Collective │ 07218282       │ fuzzy   │    95 │
    │ a-n The Artists Information Company │ 01626331       │ fuzzy   │    92 │
    │ Bloodaxe Books Ltd                  │ 15402049       │ fuzzy   │    95 │
    │ Changing Relations                  │ 08715299       │ fuzzy   │    95 │
    │ Cloud Nine Theatre Productions      │ 04095014       │ fuzzy   │    95 │
    │ Eliot Smith Company                 │ 09442391       │ fuzzy   │    95 │
    │ Equal Arts                          │ 01992359       │ fuzzy   │    95 │
    │ Generator North East                │ 03670235       │ fuzzy   │    95 │
    │ Hexham Book Festival                │ 06630555       │ fuzzy   │    95 │
    │          ·                          │    ·           │   ·     │     · │
    │          ·                          │    ·           │   ·     │     · │
    │          ·                          │    ·           │   ·     │     · │
    │ The Witham Hall Ltd                 │ 06959661       │ direct  │   100 │
    │ Theatre Space North East CIC        │ 10059355       │ direct  │   100 │
    │ Tyneside Cinema                     │ 01113101       │ direct  │   100 │
    │ Unfolding Theatre                   │ 06764666       │ direct  │   100 │
    │ Unlock Music CIC                    │ 13277858       │ direct  │   100 │
    │ Vane Contemporary Art Limited       │ 04313545       │ direct  │   100 │
    │ Woodhorn Charitable Trust           │ 06893854       │ direct  │   100 │
    │ Workie Ticket Theatre CIC           │ 11780194       │ direct  │   100 │
    │ YMCA North Tyneside                 │ 02703063       │ direct  │   100 │
    │ tiny dragon Productions             │ 13816200       │ direct  │   100 │
    ├─────────────────────────────────────┴────────────────┴─────────┴───────┤
    │ 126 rows (20 shown)                                          4 columns │
…
